{
	"factory_cost":
	{
		"cf0": 450,
		"cf1": 420,
		"cf2": 400
	},
	"factory_throughput":
	{
		"f0": 2000,
		"f1": 1500,
		"f2": 1000
	},
	"constraints":
	{
		"goal": 80000,
		"max_days": 30,
		"num_factories": 3
	}
	
	"work_dir": "/home/radkris/ops_optim",
	"output_dir": "/home/radkris/ops_optim/results/",
	"model_dir":"/home/radkris/ops_optim/models"
	}
